Stat-295 HW1
…
(v) Taking the mean of chocolate rating and cocoa percent
according to the company location.

chocolate %>%
  group_by(company_location) %>%
  summarise(mean_rating = mean(rating),
            mean_cocoa_percent = mean(as.numeric(factor(cocoa_percent))))

## # A tibble: 67 × 3
##    company_location mean_rating mean_cocoa_percent
##    <fct>                  <dbl>              <dbl>
##  1 Amsterdam               3.31               3   
##  2 Argentina               3.31               1.67
##  3 Australia               3.36               5.89
##  4 Austria                 3.26               6.47
##  5 Belgium                 3.10               7.95
##  6 Bolivia                 3.25               1.5 
##  7 Brazil                  3.28               6   
##  8 Canada                  3.30               9.84
##  9 Chile                   3.75               1   
## 10 Colombia                3.20               6.90
## # ℹ 57 more rows
…
(viii) Mean of the rating column for each company
locations that ordered by descending.

chocolate %>%
  group_by(company_location) %>%
  summarise(mean_rating = mean(rating)) %>%
  arrange(desc(mean_rating))

## # A tibble: 67 × 2
##    company_location mean_rating
##    <fct>                  <dbl>
##  1 Chile                   3.75
##  2 U.A.E.                  3.4 
##  3 Poland                  3.38
##  4 Vietnam                 3.36
##  5 Australia               3.36
##  6 Guatemala               3.35
##  7 Denmark                 3.34
##  8 Norway                  3.33
##  9 Switzerland             3.32
## 10 Amsterdam               3.31
## # ℹ 57 more rows
…
